…
```r
as_tibble(mtcars)
```

```
## # A tibble: 32 × 11
##      mpg   cyl  disp    hp  drat    wt  qsec    vs    am  gear  carb
## *  <dbl> <dbl> <dbl> <dbl> <dbl> <dbl> <dbl> <dbl> <dbl> <dbl> <dbl>
## 1   21.0     6 160.0   110  3.90 2.620 16.46     0     1     4     4
## 2   21.0     6 160.0   110  3.90 2.875 17.02     0     1     4     4
## 3   22.8     4 108.0    93  3.85 2.320 18.61     1     1     4     1
## 4   21.4     6 258.0   110  3.08 3.215 19.44     1     0     3     1
## 5   18.7     8 360.0   175  3.15 3.440 17.02     0     0     3     2
## 6   18.1     6 225.0   105  2.76 3.460 20.22     1     0     3     1
## 7   14.3     8 360.0   245  3.21 3.570 15.84     0     0     3     4
## 8   24.4     4 146.7    62  3.69 3.190 20.00     1     0     4     2
## 9   22.8     4 140.8    95  3.92 3.150 22.90     1     0     4     2
## 10  19.2     6 167.6   123  3.92 3.440 18.30     1     0     4     4
## # ... with 22 more rows
```
…
tible extactions always always return a tibble, whereas dataframes can return a vector.

### 3
_If you have the name of a variable stored in an object, e.g. var <- "mpg", how can you extract the reference variable from a tibble?_


```r
var <- "hwy"
data(mpg)
mpg
```

```
## # A tibble: 234 × 11
##    manufacturer      model displ  year   cyl      trans   drv   cty   hwy
##           <chr>      <chr> <dbl> <int> <int>      <chr> <chr> <int> <int>
## 1          audi         a4   1.8  1999     4   auto(l5)     f    18    29
## 2          audi         a4   1.8  1999     4 manual(m5)     f    21    29
## 3          audi         a4   2.0  2008     4 manual(m6)     f    20    31
## 4          audi         a4   2.0  2008     4   auto(av)     f    21    30
## 5          audi         a4   2.8  1999     6   auto(l5)     f    16    26
## 6          audi         a4   2.8  1999     6 manual(m5)     f    18    26
## 7          audi         a4   3.1  2008     6   auto(av)     f    18    27
## 8          audi a4 quattro   1.8  1999     4 manual(m5)     4    18    26
## 9          audi a4 quattro   1.8  1999     4   auto(l5)     4    16    25
## 10         audi a4 quattro   2.0  2008     4 manual(m6)     4    20    28
## # ... with 224 more rows, and 2 more variables: fl <chr>, class <chr>
```
…
```r
select(mpg,matches(var))
```

```
## # A tibble: 234 × 1
##      hwy
##    <int>
## 1     29
## 2     29
## 3     31
## 4     30
## 5     26
## 6     26
## 7     27
## 8     26
## 9     25
## 10    28
## # ... with 224 more rows
```

```r
subset(mpg,select=var)
```

```
## # A tibble: 234 × 1
##      hwy
##    <int>
## 1     29
## 2     29
## 3     31
## 4     30
## 5     26
## 6     26
## 7     27
## 8     26
## 9     25
## 10    28
## # ... with 224 more rows
```

```r
mpg[var]
```

```
## # A tibble: 234 × 1
##      hwy
##    <int>
## 1     29
## 2     29
## 3     31
## 4     30
## 5     26
## 6     26
## 7     27
## 8     26
## 9     25
## 10    28
## # ... with 224 more rows
```
…
```r
mpg[,var]
```

```
## # A tibble: 234 × 1
##      hwy
##    <int>
## 1     29
## 2     29
## 3     31
## 4     30
## 5     26
## 6     26
## 7     27
## 8     26
## 9     25
## 10    28
## # ... with 224 more rows
```
…
### 6
_What option controls how many additional column names are printed at the footer of a tibble?_

`tibble.max_extra_cols`



```r
library(nycflights13)
flights
```

```
## # A tibble: 336,776 × 19
##     year month   day dep_time sched_dep_time dep_delay arr_time
##    <int> <int> <int>    <int>          <int>     <dbl>    <int>
## 1   2013     1     1      517            515         2      830
## 2   2013     1     1      533            529         4      850
## 3   2013     1     1      542            540         2      923
## 4   2013     1     1      544            545        -1     1004
## 5   2013     1     1      554            600        -6      812
## 6   2013     1     1      554            558        -4      740
## 7   2013     1     1      555            600        -5      913
## 8   2013     1     1      557            600        -3      709
## 9   2013     1     1      557            600        -3      838
## 10  2013     1     1      558            600        -2      753
## # ... with 336,766 more rows, and 12 more variables: sched_arr_time <int>,
## #   arr_delay <dbl>, carrier <chr>, flight <int>, tailnum <chr>,
## #   origin <chr>, dest <chr>, air_time <dbl>, distance <dbl>, hour <dbl>,
## #   minute <dbl>, time_hour <dttm>
```

```r
options(tibble.max_extra_cols=3)
flights
```

```
## # A tibble: 336,776 × 19
##     year month   day dep_time sched_dep_time dep_delay arr_time
##    <int> <int> <int>    <int>          <int>     <dbl>    <int>
## 1   2013     1     1      517            515         2      830
## 2   2013     1     1      533            529         4      850
## 3   2013     1     1      542            540         2      923
## 4   2013     1     1      544            545        -1     1004
## 5   2013     1     1      554            600        -6      812
## 6   2013     1     1      554            558        -4      740
## 7   2013     1     1      555            600        -5      913
## 8   2013     1     1      557            600        -3      709
## 9   2013     1     1      557            600        -3      838
## 10  2013     1     1      558            600        -2      753
## # ... with 336,766 more rows, and 12 more variables: sched_arr_time <int>,
## #   arr_delay <dbl>, carrier <chr>, ...
```
