June21
…
yes. warnings and then sexage ends up in var for these samples.

Q3

I claimed that iso2 and iso3 were redundant with country. Confirm this claim.

who %>% count(country,iso2,iso3)

## Source: local data frame [219 x 4]
## Groups: country, iso2 [?]
## 
##                country  iso2  iso3     n
##                  <chr> <chr> <chr> <int>
## 1          Afghanistan    AF   AFG    34
## 2              Albania    AL   ALB    34
## 3              Algeria    DZ   DZA    34
## 4       American Samoa    AS   ASM    34
## 5              Andorra    AD   AND    34
## 6               Angola    AO   AGO    34
## 7             Anguilla    AI   AIA    34
## 8  Antigua and Barbuda    AG   ATG    34
## 9            Argentina    AR   ARG    34
## 10             Armenia    AM   ARM    34
## # ... with 209 more rows
…
For each country, year, and sex compute the total number of cases of TB. Make an informative visualisation of the data.

who.tidy <- who %>%
  gather(code, value, new_sp_m014:newrel_f65, na.rm = TRUE) %>% 
  mutate(code = stringr::str_replace(code, "newrel", "new_rel")) %>%
  separate(code, c("new", "var", "sexage")) %>% 
  select(-new, -iso2, -iso3) %>% 
  separate(sexage, c("sex", "age"), sep = 1)

case.summary <- who.tidy %>% 
  group_by(country, year, sex) %>%
  summarize(cases=sum(value))
case.summary

## Source: local data frame [6,921 x 4]
## Groups: country, year [?]
## 
##        country  year   sex cases
##          <chr> <int> <chr> <int>
## 1  Afghanistan  1997     f   102
## 2  Afghanistan  1997     m    26
## 3  Afghanistan  1998     f  1207
## 4  Afghanistan  1998     m   571
## 5  Afghanistan  1999     f   517
## 6  Afghanistan  1999     m   228
## 7  Afghanistan  2000     f  1751
## 8  Afghanistan  2000     m   915
## 9  Afghanistan  2001     f  3062
## 10 Afghanistan  2001     m  1577
## # ... with 6,911 more rows
…
2

Identify the keys in the following datasets

Lahman::Batting, babynames::babynames nasaweather::atmos fueleconomy::vehicles ggplot2::diamonds

?Lahman::Batting
Lahman::Batting %>% count(playerID,yearID,teamID) %>% filter(n>1)

## Source: local data frame [56 x 4]
## Groups: playerID, yearID [56]
## 
##     playerID yearID teamID     n
##        <chr>  <int> <fctr> <int>
## 1  anderjo01   1898    BRO     2
## 2  baldwja01   2005    BAL     2
## 3  behrmha01   1947    BRO     2
## 4  clarkje02   2003    TEX     2
## 5  clarkni01   1905    CLE     2
## 6  cranddo01   1913    NY1     2
## 7  cranesa01   1890    NY1     2
## 8  donahpa01   1910    PHA     2
## 9  drillle01   1902    WS1     2
## 10 duceyro01   2000    PHI     2
## # ... with 46 more rows
…
