…
### 2

_What word has the highest number of vowels? What word has the highest proportion of vowels? (Hint: what is the denominator?)_


```r
words.df <- tibble(
  word=mywords)

#total vowels
words.df %>% mutate(vowels=str_count(word,"[aeiou]")) %>% arrange(desc(vowels))
```

```
## # A tibble: 983 × 2
##           word vowels
##          <chr>  <int>
## 1  appropriate      5
## 2    associate      5
## 3    available      5
## 4    colleague      5
## 5    encourage      5
## 6   experience      5
## 7   individual      5
## 8   television      5
## 9     absolute      4
## 10     achieve      4
## # ... with 973 more rows
```

```r
#average vowels
words.df %>% 
  mutate(vowels=str_count(word,"[aeiou]"),
         letters=str_length(word),
         proportion=vowels/letters) %>% 
  arrange(desc(proportion))
```

```
## # A tibble: 983 × 4
##      word vowels letters proportion
##     <chr>  <int>   <int>      <dbl>
## 1       a      1       1  1.0000000
## 2    area      3       4  0.7500000
## 3    idea      3       4  0.7500000
## 4     age      2       3  0.6666667
## 5     ago      2       3  0.6666667
## 6     air      2       3  0.6666667
## 7     die      2       3  0.6666667
## 8     due      2       3  0.6666667
## 9     eat      2       3  0.6666667
## 10 europe      4       6  0.6666667
## # ... with 973 more rows
```
…
