…
## 7.4.1

### 1


```r
test.data <- tibble(value=c(NA,rnorm(99,10)),
                    category=rep(LETTERS[1:5],20))
test.data
```

```
## # A tibble: 100 × 2
##        value category
##        <dbl>    <chr>
## 1         NA        A
## 2   9.266587        B
## 3  11.098623        C
## 4  10.504850        D
## 5   9.503769        E
## 6  10.975719        A
## 7  11.101286        B
## 8  10.872364        C
## 9  10.794006        D
## 10 10.109614        E
## # ... with 90 more rows
```
…
