…
## 13.3.1 Exercises

### 1

_Add a surrogate key to flights._

Because there are no unique combination of columns that can be a key we just create a sequential ID key

```r
flights <- flights %>% mutate(ID=row_number())
flights %>% select(ID, everything()) #so that we can put ID as the first column
```

```
## # A tibble: 336,776 × 20
##       ID  year month   day dep_time sched_dep_time dep_delay arr_time
##    <int> <int> <int> <int>    <int>          <int>     <dbl>    <int>
## 1      1  2013     1     1      517            515         2      830
## 2      2  2013     1     1      533            529         4      850
## 3      3  2013     1     1      542            540         2      923
## 4      4  2013     1     1      544            545        -1     1004
## 5      5  2013     1     1      554            600        -6      812
## 6      6  2013     1     1      554            558        -4      740
## 7      7  2013     1     1      555            600        -5      913
## 8      8  2013     1     1      557            600        -3      709
## 9      9  2013     1     1      557            600        -3      838
## 10    10  2013     1     1      558            600        -2      753
## # ... with 336,766 more rows, and 12 more variables: sched_arr_time <int>,
## #   arr_delay <dbl>, carrier <chr>, flight <int>, tailnum <chr>,
## #   origin <chr>, dest <chr>, air_time <dbl>, distance <dbl>, hour <dbl>,
## #   minute <dbl>, time_hour <dttm>
```

### 2

_Identify the keys in the following datasets_

#### Lahman::Batting,


```r
?Lahman::Batting
Lahman::Batting %>% count(playerID,yearID,teamID) %>% filter(n>1) #nope
```

```
## Source: local data frame [56 x 4]
## Groups: playerID, yearID [56]
## 
##     playerID yearID teamID     n
##        <chr>  <int> <fctr> <int>
## 1  anderjo01   1898    BRO     2
## 2  baldwja01   2005    BAL     2
## 3  behrmha01   1947    BRO     2
## 4  clarkje02   2003    TEX     2
## 5  clarkni01   1905    CLE     2
## 6  cranddo01   1913    NY1     2
## 7  cranesa01   1890    NY1     2
## 8  donahpa01   1910    PHA     2
## 9  drillle01   1902    WS1     2
## 10 duceyro01   2000    PHI     2
## # ... with 46 more rows
```
…
keys should be year, sex, and name


```r
babynames %>% count(year,sex,name) %>% arrange(desc(nn))
```

```
## Source: local data frame [1,858,689 x 4]
## Groups: year, sex [272]
## 
##     year   sex     name    nn
##    <dbl> <chr>    <chr> <int>
## 1   1880     F    Abbie     1
## 2   1880     F     Abby     1
## 3   1880     F  Abigail     1
## 4   1880     F      Ada     1
## 5   1880     F     Adah     1
## 6   1880     F  Adaline     1
## 7   1880     F     Adda     1
## 8   1880     F    Addie     1
## 9   1880     F    Adela     1
## 10  1880     F Adelaide     1
## # ... with 1,858,679 more rows
```
…
should be lat,long,year,month


```r
atmos %>% count(lat,long,year,month) %>% arrange(desc(n))
```

```
## Source: local data frame [41,472 x 5]
## Groups: lat, long, year [3,456]
## 
##      lat   long  year month     n
##    <dbl>  <dbl> <int> <int> <int>
## 1  -21.2 -113.8  1995     1     1
## 2  -21.2 -113.8  1995     2     1
## 3  -21.2 -113.8  1995     3     1
## 4  -21.2 -113.8  1995     4     1
## 5  -21.2 -113.8  1995     5     1
## 6  -21.2 -113.8  1995     6     1
## 7  -21.2 -113.8  1995     7     1
## 8  -21.2 -113.8  1995     8     1
## 9  -21.2 -113.8  1995     9     1
## 10 -21.2 -113.8  1995    10     1
## # ... with 41,462 more rows
```
…
```r
vehicles %>% count(id) %>% arrange(desc(n))
```

```
## # A tibble: 33,442 × 2
##       id     n
##    <int> <int>
## 1      1     1
## 2      2     1
## 3      3     1
## 4      4     1
## 5      5     1
## 6      6     1
## 7      7     1
## 8      8     1
## 9      9     1
## 10    10     1
## # ... with 33,432 more rows
```
…
```r
diamonds <- diamonds %>% mutate(ID=row_number()) %>% select(ID,everything())
diamonds
```

```
## # A tibble: 53,940 × 11
##       ID carat       cut color clarity depth table price     x     y     z
##    <int> <dbl>     <ord> <ord>   <ord> <dbl> <dbl> <int> <dbl> <dbl> <dbl>
## 1      1  0.23     Ideal     E     SI2  61.5    55   326  3.95  3.98  2.43
## 2      2  0.21   Premium     E     SI1  59.8    61   326  3.89  3.84  2.31
## 3      3  0.23      Good     E     VS1  56.9    65   327  4.05  4.07  2.31
## 4      4  0.29   Premium     I     VS2  62.4    58   334  4.20  4.23  2.63
## 5      5  0.31      Good     J     SI2  63.3    58   335  4.34  4.35  2.75
## 6      6  0.24 Very Good     J    VVS2  62.8    57   336  3.94  3.96  2.48
## 7      7  0.24 Very Good     I    VVS1  62.3    57   336  3.95  3.98  2.47
## 8      8  0.26 Very Good     H     SI1  61.9    55   337  4.07  4.11  2.53
## 9      9  0.22      Fair     E     VS2  65.1    61   337  3.87  3.78  2.49
## 10    10  0.23 Very Good     H     VS1  59.4    61   338  4.00  4.05  2.39
## # ... with 53,930 more rows
```
…
Not perfect...can only have key going somewhere once, etc.



## 13.4


```r
flights2 <- flights %>% 
  select(year:day, hour, origin, dest, tailnum, carrier)
flights2
```

```
## # A tibble: 336,776 × 8
##     year month   day  hour origin  dest tailnum carrier
##    <int> <int> <int> <dbl>  <chr> <chr>   <chr>   <chr>
## 1   2013     1     1     5    EWR   IAH  N14228      UA
## 2   2013     1     1     5    LGA   IAH  N24211      UA
## 3   2013     1     1     5    JFK   MIA  N619AA      AA
## 4   2013     1     1     5    JFK   BQN  N804JB      B6
## 5   2013     1     1     6    LGA   ATL  N668DN      DL
## 6   2013     1     1     5    EWR   ORD  N39463      UA
## 7   2013     1     1     6    EWR   FLL  N516JB      B6
## 8   2013     1     1     6    LGA   IAD  N829AS      EV
## 9   2013     1     1     6    JFK   MCO  N593JB      B6
## 10  2013     1     1     6    LGA   ORD  N3ALAA      AA
## # ... with 336,766 more rows
```
…
_Add the location of the origin and destination (i.e. the lat and lon) to flights._


```r
airports %>% select(faa,lat,lon) %>%
  right_join(flights,by=c("faa" = "origin")) %>%
  rename(lat.origin=lat, lon.origin=lon) %>%
  left_join(airports, by=c("dest" = "faa")) %>%
  rename(lat.dest=lat, lon.dest=lon) %>%
  select(-faa, -name, -alt, starts_with("lat"), starts_with("lon"))
```

```
## # A tibble: 336,776 × 26
##    lat.origin lon.origin  year month   day dep_time sched_dep_time
##         <dbl>      <dbl> <int> <int> <int>    <int>          <int>
## 1    40.69250  -74.16867  2013     1     1      517            515
## 2    40.77725  -73.87261  2013     1     1      533            529
## 3    40.63975  -73.77893  2013     1     1      542            540
## 4    40.63975  -73.77893  2013     1     1      544            545
## 5    40.77725  -73.87261  2013     1     1      554            600
## 6    40.69250  -74.16867  2013     1     1      554            558
## 7    40.69250  -74.16867  2013     1     1      555            600
## 8    40.77725  -73.87261  2013     1     1      557            600
## 9    40.63975  -73.77893  2013     1     1      557            600
## 10   40.77725  -73.87261  2013     1     1      558            600
## # ... with 336,766 more rows, and 19 more variables: dep_delay <dbl>,
## #   arr_time <int>, sched_arr_time <int>, arr_delay <dbl>, carrier <chr>,
## #   flight <int>, tailnum <chr>, dest <chr>, air_time <dbl>,
## #   distance <dbl>, hour <dbl>, minute <dbl>, time_hour <dttm>, ID <int>,
## #   lat.dest <dbl>, lon.dest <dbl>, tz <dbl>, dst <chr>, tzone <chr>
```
…
```
## # A tibble: 334,610 × 11
##       ID dep_delay  temp  dewp humid wind_dir wind_speed wind_gust precip
##    <int>     <dbl> <dbl> <dbl> <dbl>    <dbl>      <dbl>     <dbl>  <dbl>
## 1      3         2 39.02 26.06 59.37      260   12.65858  14.56724      0
## 2      4        -1 39.02 26.06 59.37      260   12.65858  14.56724      0
## 3      5        -6 39.92 26.06 57.33      260   13.80936  15.89154      0
## 4      6        -4 39.02 26.06 59.37      270   10.35702  11.91865      0
## 5      7        -5 39.02 26.06 59.37      270   10.35702  11.91865      0
## 6      8        -3 39.92 26.06 57.33      260   13.80936  15.89154      0
## 7      9        -3 39.02 26.06 59.37      260   12.65858  14.56724      0
## 8     10        -2 39.92 26.06 57.33      260   13.80936  15.89154      0
## 9     11        -2 39.02 26.06 59.37      260   12.65858  14.56724      0
## 10    12        -2 39.02 26.06 59.37      260   12.65858  14.56724      0
## # ... with 334,600 more rows, and 2 more variables: pressure <dbl>,
## #   visib <dbl>
```
…
## Exercises 13.5.1

### 1 
_What does it mean for a flight to have a missing tailnum? What do the tail numbers that don’t have a matching record in planes have in common? (Hint: one variable explains ~90% of the problems.)_


```r
flights %>% anti_join(planes,by = "tailnum")
```

```
## # A tibble: 52,606 × 20
##     year month   day dep_time sched_dep_time dep_delay arr_time
##    <int> <int> <int>    <int>          <int>     <dbl>    <int>
## 1   2013     9    17     1457           1455         2     1650
## 2   2013     8    24     1638           1640        -2     1747
## 3   2013     9     7     1830           1829         1     1934
## 4   2013     9    18     1620           1510        70     1845
## 5   2013     8    15     2019           1915        64     2307
## 6   2013     8    12     1245           1245         0     1532
## 7   2013     7    18     1247           1250        -3     1419
## 8   2013     7    20      859            829        30     1035
## 9   2013     7    20     1307           1250        17     1446
## 10  2013     7    22     1538           1455        43     1756
## # ... with 52,596 more rows, and 13 more variables: sched_arr_time <int>,
## #   arr_delay <dbl>, carrier <chr>, flight <int>, tailnum <chr>,
## #   origin <chr>, dest <chr>, air_time <dbl>, distance <dbl>, hour <dbl>,
## #   minute <dbl>, time_hour <dttm>, ID <int>
```
…
### 2
_Filter flights to only show flights with planes that have flown at least 100 flights._


```r
flights %>% group_by(tailnum) %>% filter(n()>100)
```

```
## Source: local data frame [229,202 x 20]
## Groups: tailnum [1,201]
## 
##     year month   day dep_time sched_dep_time dep_delay arr_time
##    <int> <int> <int>    <int>          <int>     <dbl>    <int>
## 1   2013     1     1      517            515         2      830
## 2   2013     1     1      533            529         4      850
## 3   2013     1     1      544            545        -1     1004
## 4   2013     1     1      554            558        -4      740
## 5   2013     1     1      555            600        -5      913
## 6   2013     1     1      557            600        -3      709
## 7   2013     1     1      557            600        -3      838
## 8   2013     1     1      558            600        -2      849
## 9   2013     1     1      558            600        -2      853
## 10  2013     1     1      558            600        -2      923
## # ... with 229,192 more rows, and 13 more variables: sched_arr_time <int>,
## #   arr_delay <dbl>, carrier <chr>, flight <int>, tailnum <chr>,
## #   origin <chr>, dest <chr>, air_time <dbl>, distance <dbl>, hour <dbl>,
## #   minute <dbl>, time_hour <dttm>, ID <int>
```
…
```r
fueleconomy::vehicles %>% semi_join(fueleconomy::common)
```

```
## Joining, by = c("make", "model")
```

```
## # A tibble: 14,531 × 12
##       id  make   model  year           class           trans
##    <int> <chr>   <chr> <int>           <chr>           <chr>
## 1   1833 Acura Integra  1986 Subcompact Cars Automatic 4-spd
## 2   1834 Acura Integra  1986 Subcompact Cars    Manual 5-spd
## 3   3037 Acura Integra  1987 Subcompact Cars Automatic 4-spd
## 4   3038 Acura Integra  1987 Subcompact Cars    Manual 5-spd
## 5   4183 Acura Integra  1988 Subcompact Cars Automatic 4-spd
## 6   4184 Acura Integra  1988 Subcompact Cars    Manual 5-spd
## 7   5303 Acura Integra  1989 Subcompact Cars Automatic 4-spd
## 8   5304 Acura Integra  1989 Subcompact Cars    Manual 5-spd
## 9   6442 Acura Integra  1990 Subcompact Cars Automatic 4-spd
## 10  6443 Acura Integra  1990 Subcompact Cars    Manual 5-spd
## # ... with 14,521 more rows, and 6 more variables: drive <chr>, cyl <int>,
## #   displ <dbl>, fuel <chr>, hwy <int>, cty <int>
```
…
### 5
_What does anti_join(flights, airports, by = c("dest" = "faa")) tell you? What does anti_join(airports, flights, by = c("faa" = "dest")) tell you?_


```r
anti_join(flights, airports, by = c("dest" = "faa"))
```

```
## # A tibble: 7,602 × 20
##     year month   day dep_time sched_dep_time dep_delay arr_time
##    <int> <int> <int>    <int>          <int>     <dbl>    <int>
## 1   2013     1     1     2353           2359        -6      425
## 2   2013     1     2     2351           2359        -8      427
## 3   2013     1     3     2349           2359       -10      434
## 4   2013     1     4     2358           2359        -1      436
## 5   2013     1     5       14           2359        15      503
## 6   2013     1     6     2353           2359        -6      441
## 7   2013     1     7       49           2359        50      531
## 8   2013     1     8     2351           2359        -8      417
## 9   2013     1     9        2           2359         3      432
## 10  2013     1    10       16           2359        17      447
## # ... with 7,592 more rows, and 13 more variables: sched_arr_time <int>,
## #   arr_delay <dbl>, carrier <chr>, flight <int>, tailnum <chr>,
## #   origin <chr>, dest <chr>, air_time <dbl>, distance <dbl>, hour <dbl>,
## #   minute <dbl>, time_hour <dttm>, ID <int>
```
These are flights where the destination airport is not listed in the airports table


```r
anti_join(airports, flights, by = c("faa" = "dest"))
```

```
## # A tibble: 1,357 × 8
##      faa                        name      lat        lon   alt    tz   dst
##    <chr>                       <chr>    <dbl>      <dbl> <int> <dbl> <chr>
## 1    ZYP                Penn Station 40.75050  -73.99350    35    -5     A
## 2    ZWU    Washington Union Station 38.89746  -77.00643    76    -5     A
## 3    ZWI   Wilmington Amtrak Station 39.73667  -75.55167     0    -5     A
## 4    ZVE      New Haven Rail Station 41.29867  -72.92599     7    -5     A
## 5    ZUN                  Black Rock 35.08323 -108.79178  6454    -7     A
## 6    ZTY     Boston Back Bay Station 42.34780  -71.07500    20    -5     A
## 7    ZTF     Stamford Amtrak Station 41.04694  -73.54149     0    -5     A
## 8    ZSY          Scottsdale Airport 33.62289 -111.91053  1519    -7     A
## 9    ZSF  Springfield Amtrak Station 42.10600  -72.59305    65    -5     A
## 10   ZRZ New Carrollton Rail Station 38.94800  -76.87190    39    -5     A
## # ... with 1,347 more rows, and 1 more variables: tzone <chr>
```
…
```
## Joining, by = "tailnum"
```

```
## Joining, by = "carrier"
```

```
## Source: local data frame [34 x 3]
## Groups: tailnum [?]
## 
##    tailnum carrier                     name
##      <chr>   <chr>                    <chr>
## 1   N146PQ      9E        Endeavor Air Inc.
## 2   N146PQ      EV ExpressJet Airlines Inc.
## 3   N153PQ      9E        Endeavor Air Inc.
## 4   N153PQ      EV ExpressJet Airlines Inc.
## 5   N176PQ      9E        Endeavor Air Inc.
## 6   N176PQ      EV ExpressJet Airlines Inc.
## 7   N181PQ      9E        Endeavor Air Inc.
## 8   N181PQ      EV ExpressJet Airlines Inc.
## 9   N197PQ      9E        Endeavor Air Inc.
## 10  N197PQ      EV ExpressJet Airlines Inc.
## # ... with 24 more rows
```
